{
  "manifest_version": 2,
  "name": "Stop écriture inclusive",
  "version": "0.1.5",
  "homepage_url": "https://gitlab.com/stop-ecriture-inclusive/stop-ecriture-inclusive",
  "description": "Corrige l’écriture inclusive d’une page web en temps réel.",

  "icons": {
    "16": "icons/stop-ecriture-inclusive.svg",
    "32": "icons/stop-ecriture-inclusive.svg",
    "48": "icons/stop-ecriture-inclusive.svg",
    "64": "icons/stop-ecriture-inclusive.svg",
    "96": "icons/stop-ecriture-inclusive.svg",
    "128": "icons/stop-ecriture-inclusive.svg"
  },
  "background": {
      "scripts": [
        "background_script.js"
      ]
  },
  "content_scripts": [
    {
      "run_at": "document_start",
      "exclude_globs": [
        "*://*.facebook.*/*",
        "*://*.messenger.*/*",
        "*://*.kozazot.*/*"
      ],
      "matches": [
       "http://*/*",
       "https://*/*"
      ],
      "js": [
        "content_script.js"
      ]
    }
  ],
  "browser_action": {
    "default_icon": "icons/stop-ecriture-inclusive.svg",
    "default_title": "Stop Écriture Inclusive",
    "default_popup": "popup.html",
    "browser_style": true
  }
}
